1 10 20
100 200 125
201 210 89
900 1000 174
284882 218634 443
434124 199798 449
35749 576577 470
497902 101720 449
391452 811398 509
894122 534472 525
580039 925423 525
462154 276594 449
973495 348054 525
487419 836394 509
724479 540594 509
234711 420200 449
282616 352022 441
95563 143148 375
98113 782568 509
88849 790488 509
377557 262687 441
429407 765594 509
267772 418856 449
336050 845352 525
416666 320453 449
415019 51111 449
191158 591385 470
88346 700041 509
651691 886279 525
966849 926976 507
774615 277965 509
420044 584421 470
254488 380296 441
731283 977148 525
953226 669785 525
586222 143195 470
713329 918880 525
100566 888773 525
744244 637015 504
449853 263258 449
598621 675771 509
653334 979638 525
420020 703323 509
731981 866413 525
923084 115690 525
96782 645069 509
818272 426275 509
235695 399195 441
900789 711905 525
175086 711625 509
498027 51007 449
19704 977769 525
552113 985326 525
272866 768201 509
229130 276393 443
664770 993116 525
552715 618909 447
939309 716995 525
972012 674852 525
232755 880006 525
553966 776110 509
37477 847287 525
158882 638490 509
828130 172811 509
541047 369488 470
993171 650297 525
731649 182004 509
776160 260309 509
417471 66019 449
378036 979950 525
401055 69947 443
151927 125781 375
911792 430147 525
827570 352394 509
797866 354678 509
882663 222902 525
34894 178630 383
628722 452256 509
779298 471601 509
106764 547068 470
555604 972758 525
767558 42256 509
25992 803721 509
344867 935668 525
532473 772190 509
204265 978267 525
439232 191489 449
956861 922960 507
866701 110932 525
112959 204549 383
467814 402094 449
924605 764489 525
413361 587301 470
303339 909112 525
479544 639520 509
622297 662115 509
214019 754280 509
317298 207705 443
971284 513615 525
876097 369733 525
260230 398796 441
564805 910583 525
515193 356644 470
805507 750217 468
375042 171801 443
618993 283007 470
929682 557018 525
662889 510200 509
434686 648157 509
446848 34699 449
35321 270436 443
932771 411964 525
138188 797626 509
543994 649213 509
933989 98829 525
943756 302029 525
490578 260001 449
684824 629885 442
2712 359905 443
517090 660600 509
980237 300220 525
956837 789305 525
625226 789484 509
597702 333175 470
930907 398865 525
811145 878525 525
607436 865194 525
268883 64855 443
928249 413365 525
884954 849148 432
133052 667747 509
25548 917256 525
400815 809952 509
222794 483112 449
19579 47222 324
280225 284795 358
48590 268229 443
766985 452443 509
950137 135636 525
668980 479475 509
473915 410288 444
818861 972886 525
130718 46637 354
231604 918337 525
872119 351386 525
884162 569936 525
619418 442932 470
192329 363489 443
670018 408833 509
465456 303301 449
421560 366045 449
311090 759305 509
916656 439762 525
288348 688822 509
824216 266281 509
132977 405613 443
778430 302960 509
233905 528877 470
908335 72976 525
362356 6296 443
685087 81622 509
25254 883879 525
992361 364480 525
796112 47123 509
759872 757726 362
114259 116017 349
590831 16940 470
337249 40679 443
561236 853161 525
281451 714903 509
772192 803595 468
92291 101680 341
296037 609240 470
48289 947745 525
872890 432832 525
822018 153454 509
31616 18729 308
288532 716150 509
640536 106036 509
729833 502697 509
615961 504244 470
188831 437796 449
900 1000 174
200 400 144
400 800 171
600 1200 182
800 1600 182
1000 2000 182
1200 2400 183
1400 2800 209
1600 3200 217
1800 3600 217
2000 4000 238
2200 4400 238
2400 4800 238
2600 5200 238
2800 5600 238
3000 6000 238
3200 6400 262
3400 6800 262
