1 10 20
100 200 125
201 210 89
900 1000 174
819 65689 340
1990 6892 262
9454 76686 340
9841 3595 262
2400 96044 351
2873 50686 324
3977 61511 340
4663 29453 308
5015 81632 351
9431 47775 324
974724 379861 525
356016 850413 525
874 190 179
27 382 144
108 312 128
40 612 144
634 694 145
824 435 171
816 442 171
628 867 171
493 177 144
625 997 179
250 304 123
60 196 125
644 420 142
421 134 144
251 533 144
724 362 171
574 589 119
429 427 103
382 834 171
350 743 171
374 110 144
656 550 145
67 140 122
315 448 144
560 147 144
992 151 179
275 50 128
408 631 142
658 933 179
833 339 171
120 949 179
958 886 174
719 16 171
144 745 171
460 156 144
989 662 179
574 369 142
859 487 171
522 369 142
120 424 144
898 136 179
815 243 171
875 74 179
728 793 153
501 76 144
186 70 125
969 344 179
866 482 171
533 644 137
820 561 171
1479 9251 262
1687 7439 262
3886 8193 262
1875 5411 238
1241 9757 262
6651 3939 262
1280 6270 262
754 1260 182
8747 5557 262
5632 1136 238
1126 6474 262
8695 3303 262
8936 138 262
7232 8140 252
181 5879 238
9216 4624 262
2979 1374 217
6052 6072 187
9751 6397 260
2290 5439 238
4346 9252 262
9343 9569 198
8534 6379 257
28 9565 262
3892 5335 215
4954 877 238
4272 2363 238
8206 3631 262
3744 8239 262
8400 8098 234
1586 1497 167
2525 3204 217
9259 3832 262
2426 5924 238
5488 3633 238
5937 5979 143
5972 3103 238
4039 4881 215
2722 4501 238
9390 324 262
2214 1092 182
5412 3965 215
6095 1478 238
3413 1225 217
5678 5260 236
220 5871 238
3003 9197 262
5877 3972 236
3064 6543 262
5267 6604 262
